boards/kc_ethernet/debug/iladata.vcd
$date
        2023-Feb-23 18:02:46
$end
$version
        Vivado v2017.1 (64-bit)
$end
$timescale
        1ps
$end
$scope module dut $end
$var reg 8 " tx_axis_mac_tdata [7:0] $end
$var reg 1 * <const0> $end
$var reg 1 + <const0>_1 $end
$var reg 1 , tx_axis_mac_tlast $end
$var reg 1 - tx_axis_mac_tvalid $end
$var reg 1 . <const0>_2 $end
$var reg 1 / <const0>_3 $end
$var reg 1 0 <const0>_4 $end
$var reg 1 1 <const0>_5 $end
$var reg 1 2 <const0>_6 $end
$var reg 1 3 <const0>_7 $end
$var reg 1 4 <const0>_8 $end
$var reg 1 5 <const0>_9 $end
$var reg 1 6 <const0>_10 $end
$var reg 1 7 <const0>_11 $end
$var reg 1 8 tx_axis_mac_tready $end
$var reg 1 9 <const0>_12 $end
$var reg 1 : _TRIGGER $end
$var reg 1 ; _WINDOW $end
$var reg 1 < _GAP $end
$upscope $end
$enddefinitions $end
#0
$dumpvars
b0 "
0*
0+
0,
1-
0.
0/
00
01
02
03
04
05
06
07
08
09
1:
1;
0<
$end
#24
18
#25
0-
#26
08
#100
b1010 "
1-
#1123
18
#1124
b110101 "
08
#1223
18
#1224
b11 "
08
#1323
18
#1324
b11110 "
08
#1423
18
#1424
b1010000 "
08
#1523
18
#1524
b110000 "
08
#1623
18
#1624
b11100001 "
08
#1723
18
#1724
b1110001 "
08
#1823
18
#1824
b10101 "
08
#1923
18
#1924
b1110 "
08
#2023
18
#2024
b11111 "
08
#2123
18
#2124
b1000 "
08
#2223
18
#2224
b0 "
08
#2323
18
#2324
b1010100 "
08
#2423
18
#2424
b1101000 "
08
#2523
18
#2524
b1101001 "
08
#2623
18
#2624
b1110011 "
08
#2723
18
#2724
b100000 "
08
#2823
18
#2824
b1101001 "
08
#2923
18
#2924
b1110011 "
08
#3023
18
#3024
b100000 "
08
#3123
18
#3124
b1100001 "
08
#3223
18
#3224
b100000 "
08
#3323
18
#3324
b1101101 "
08
#3423
18
#3424
b1100101 "
08
#3523
18
#3524
b1110011 "
08
#3623
18
#3624
08
#3723
18
#3724
b1100001 "
08
#3823
18
#3824
b1100111 "
08
#3923
18
#3924
b1100101 "
08
#4023
18
#4024
b100000 "
08
#4123
18
#4124
b1100110 "
08
#4223
18
#4224
b1101111 "
08
#4323
18
#4324
b1110010 "
08
#4423
18
#4424
b100000 "
08
#4523
18
#4524
b1110011 "
08
#4623
18
#4624
b1101111 "
08
#4723
18
#4724
b1101101 "
08
#4823
18
#4824
b1100101 "
08
#4923
18
#4924
b1101111 "
08
#5023
18
#5024
b1101110 "
08
#5123
18
#5124
b1100101 "
08
#5223
18
#5224
b100000 "
08
#5323
18
#5324
b1001001 "
08
#5423
18
#5424
b100000 "
08
#5523
18
#5524
b1100001 "
08
#5623
18
#5624
b1101101 "
08
#5723
18
#5724
b100000 "
08
#5823
18
#5824
b1101110 "
08
#5923
18
#5924
b1101111 "
08
#6023
18
#6024
b1110100 "
08
#6123
18
#6124
b100000 "
08
#6223
18
#6224
b1110011 "
08
#6323
18
#6324
b1110101 "
08
#6423
18
#6424
b1110010 "
08
#6523
18
#6524
b1100101 "
08
#6623
18
#6624
b101110 "
08
#6723
18
#6724
08
#6823
18
#6824
b100001 "
08
#6923
18
#6924
b0 "
08
#7023
18
#7024
08
#7123
18
#7124
08
#7223
18
#7224
b1010 "
08
#7323
18
#7324
1,
08
#7423
18
#7424
0-
08
